{
  "configVersion": 1,
  "timestamp": 1582514686041,
  "index": "/index.html",
  "assetGroups": [
    {
      "name": "app",
      "installMode": "prefetch",
      "updateMode": "prefetch",
      "urls": [
        "/favicon.ico",
        "/index.html",
        "/main-es2015.e73494d8341e731dd903.js",
        "/main-es5.e73494d8341e731dd903.js",
        "/manifest.webmanifest",
        "/polyfills-es2015.5b10b8fd823b6392f1fd.js",
        "/polyfills-es5.3e8196928d184a6e5319.js",
        "/runtime-es2015.c5fa8325f89fc516600b.js",
        "/runtime-es5.c5fa8325f89fc516600b.js",
        "/styles.4d30794be43c214224a5.css"
      ],
      "patterns": []
    },
    {
      "name": "assets",
      "installMode": "lazy",
      "updateMode": "prefetch",
      "urls": [
        "/assets/icons/icon-128x128.png",
        "/assets/icons/icon-144x144.png",
        "/assets/icons/icon-152x152.png",
        "/assets/icons/icon-192x192.png",
        "/assets/icons/icon-384x384.png",
        "/assets/icons/icon-512x512.png",
        "/assets/icons/icon-72x72.png",
        "/assets/icons/icon-96x96.png"
      ],
      "patterns": []
    }
  ],
  "dataGroups": [],
  "hashTable": {
    "/assets/icons/icon-128x128.png": "dae3b6ed49bdaf4327b92531d4b5b4a5d30c7532",
    "/assets/icons/icon-144x144.png": "b0bd89982e08f9bd2b642928f5391915b74799a7",
    "/assets/icons/icon-152x152.png": "7479a9477815dfd9668d60f8b3b2fba709b91310",
    "/assets/icons/icon-192x192.png": "1abd80d431a237a853ce38147d8c63752f10933b",
    "/assets/icons/icon-384x384.png": "329749cd6393768d3131ed6304c136b1ca05f2fd",
    "/assets/icons/icon-512x512.png": "559d9c4318b45a1f2b10596bbb4c960fe521dbcc",
    "/assets/icons/icon-72x72.png": "c457e56089a36952cd67156f9996bc4ce54a5ed9",
    "/assets/icons/icon-96x96.png": "3914125a4b445bf111c5627875fc190f560daa41",
    "/favicon.ico": "22f6a4a3bcaafafb0254e0f2fa4ceb89e505e8b2",
    "/index.html": "b8a1f480b67e85e8f284ed74b309be96aea658a4",
    "/main-es2015.e73494d8341e731dd903.js": "79d77bc69706aada79ea8f23a52c7722a109b3f2",
    "/main-es5.e73494d8341e731dd903.js": "791f4a457e424f1afce83692c6111fe7528623f9",
    "/manifest.webmanifest": "8c58a079a6dd7ad831b1b4c3e2d23760b8c3ac16",
    "/polyfills-es2015.5b10b8fd823b6392f1fd.js": "9abfe15f17820a646e3d51c420908d9f8f7b69b8",
    "/polyfills-es5.3e8196928d184a6e5319.js": "a9abcb7b9e74feed315773004b623373fdf3fada",
    "/runtime-es2015.c5fa8325f89fc516600b.js": "a9aafcf49f49145093fc831efd9b8e2f6c71bb9c",
    "/runtime-es5.c5fa8325f89fc516600b.js": "a9aafcf49f49145093fc831efd9b8e2f6c71bb9c",
    "/styles.4d30794be43c214224a5.css": "4dce3cd5acc0b7955cc69ca2b3407b6103286d7d"
  },
  "navigationUrls": [
    {
      "positive": true,
      "regex": "^\\/.*$"
    },
    {
      "positive": false,
      "regex": "^\\/(?:.+\\/)?[^/]*\\.[^/]*$"
    },
    {
      "positive": false,
      "regex": "^\\/(?:.+\\/)?[^/]*__[^/]*$"
    },
    {
      "positive": false,
      "regex": "^\\/(?:.+\\/)?[^/]*__[^/]*\\/.*$"
    }
  ]
}